           CPU0       
  0:    1110494          XT-PIC  timer
  1:      14902          XT-PIC  keyboard
  2:          0          XT-PIC  cascade
  5:        735          XT-PIC  ESS Solo-1
  8:          2          XT-PIC  rtc
 11:      24040          XT-PIC  ide2, atp870u
 12:     127873          XT-PIC  PS/2 Mouse
 13:          1          XT-PIC  fpu
 14:       8857          XT-PIC  ide0
 15:         14          XT-PIC  ide1
NMI:          0

